detector	rssi	date	value
GE11-M-20-L1-L	0	2021-08-04 19:54	370
GE11-M-20-L1-L	1	2021-08-04 19:54	293
GE11-M-20-L1-L	2	2021-08-04 19:54	370
GE11-M-20-L2-L	0	2021-08-04 19:54	309
GE11-M-20-L2-L	1	2021-08-04 19:54	410
GE11-M-20-L2-L	2	2021-08-04 19:54	387
GE11-M-31-L1-S	0	2021-08-04 19:54	362
GE11-M-31-L1-S	1	2021-08-04 19:54	403
GE11-M-31-L1-S	2	2021-08-04 19:54	273
GE11-M-31-L2-S	0	2021-08-04 19:54	418
GE11-M-31-L2-S	1	2021-08-04 19:54	428
GE11-M-31-L2-S	2	2021-08-04 19:54	421
GE11-M-20-L1-L	0	2021-08-05 07:49	375
GE11-M-20-L1-L	1	2021-08-05 07:49	287
GE11-M-20-L1-L	2	2021-08-05 07:49	370
GE11-M-20-L2-L	0	2021-08-05 07:49	309
GE11-M-20-L2-L	1	2021-08-05 07:49	410
GE11-M-20-L2-L	2	2021-08-05 07:49	384
GE11-M-31-L1-S	0	2021-08-05 07:49	364
GE11-M-31-L1-S	1	2021-08-05 07:49	402
GE11-M-31-L1-S	2	2021-08-05 07:49	257
GE11-M-31-L2-S	0	2021-08-05 07:49	416
GE11-M-31-L2-S	1	2021-08-05 07:49	428
GE11-M-31-L2-S	2	2021-08-05 07:49	421
GE11-M-20-L1-L	0	2021-08-05 19:55	380
GE11-M-20-L1-L	1	2021-08-05 19:55	173
GE11-M-20-L1-L	2	2021-08-05 19:55	366
GE11-M-20-L2-L	0	2021-08-05 19:55	306
GE11-M-20-L2-L	1	2021-08-05 19:55	414
GE11-M-20-L2-L	2	2021-08-05 19:55	386
GE11-M-31-L1-S	0	2021-08-05 19:55	361
GE11-M-31-L1-S	1	2021-08-05 19:55	403
GE11-M-31-L1-S	2	2021-08-05 19:55	251
GE11-M-31-L2-S	0	2021-08-05 19:55	418
GE11-M-31-L2-S	1	2021-08-05 19:55	427
GE11-M-31-L2-S	2	2021-08-05 19:55	421
GE11-M-20-L1-L	0	2021-08-06 09:29	375
GE11-M-20-L1-L	1	2021-08-06 09:29	209
GE11-M-20-L1-L	2	2021-08-06 09:29	357
GE11-M-20-L2-L	0	2021-08-06 09:29	300
GE11-M-20-L2-L	1	2021-08-06 09:29	408
GE11-M-20-L2-L	2	2021-08-06 09:29	376
GE11-M-31-L1-S	0	2021-08-06 09:29	352
GE11-M-31-L1-S	1	2021-08-06 09:29	395
GE11-M-31-L1-S	2	2021-08-06 09:29	238
GE11-M-31-L2-S	0	2021-08-06 09:29	416
GE11-M-31-L2-S	1	2021-08-06 09:29	420
GE11-M-31-L2-S	2	2021-08-06 09:29	418
GE11-M-20-L1-L	0	2021-08-06 22:23	386
GE11-M-20-L1-L	1	2021-08-06 22:23	312
GE11-M-20-L1-L	2	2021-08-06 22:23	371
GE11-M-20-L2-L	0	2021-08-06 22:23	281
GE11-M-20-L2-L	1	2021-08-06 22:23	388
GE11-M-20-L2-L	2	2021-08-06 22:23	386
GE11-M-31-L1-S	0	2021-08-06 22:23	364
GE11-M-31-L1-S	1	2021-08-06 22:23	402
GE11-M-31-L1-S	2	2021-08-06 22:23	240
GE11-M-31-L2-S	0	2021-08-06 22:23	417
GE11-M-31-L2-S	1	2021-08-06 22:23	426
GE11-M-31-L2-S	2	2021-08-06 22:23	421
GE11-M-20-L1-L	0	2021-08-07 08:40	386
GE11-M-20-L1-L	1	2021-08-07 08:40	318
GE11-M-20-L1-L	2	2021-08-07 08:40	371
GE11-M-20-L2-L	0	2021-08-07 08:40	282
GE11-M-20-L2-L	1	2021-08-07 08:40	387
GE11-M-20-L2-L	2	2021-08-07 08:40	384
GE11-M-31-L1-S	0	2021-08-07 08:40	362
GE11-M-31-L1-S	1	2021-08-07 08:40	404
GE11-M-31-L1-S	2	2021-08-07 08:40	234
GE11-M-31-L2-S	0	2021-08-07 08:40	420
GE11-M-31-L2-S	1	2021-08-07 08:40	424
GE11-M-31-L2-S	2	2021-08-07 08:40	421
GE11-M-20-L1-L	0	2021-08-08 02:42	386
GE11-M-20-L1-L	1	2021-08-08 02:42	298
GE11-M-20-L1-L	2	2021-08-08 02:42	369
GE11-M-20-L2-L	0	2021-08-08 02:42	279
GE11-M-20-L2-L	1	2021-08-08 02:42	388
GE11-M-20-L2-L	2	2021-08-08 02:42	382
GE11-M-31-L1-S	0	2021-08-08 02:42	362
GE11-M-31-L1-S	1	2021-08-08 02:42	401
GE11-M-31-L1-S	2	2021-08-08 02:42	227
GE11-M-31-L2-S	0	2021-08-08 02:42	422
GE11-M-31-L2-S	1	2021-08-08 02:42	424
GE11-M-31-L2-S	2	2021-08-08 02:42	421
GE11-M-20-L1-L	0	2021-08-08 11:32	386
GE11-M-20-L1-L	1	2021-08-08 11:32	320
GE11-M-20-L1-L	2	2021-08-08 11:32	370
GE11-M-20-L2-L	0	2021-08-08 11:32	281
GE11-M-20-L2-L	1	2021-08-08 11:32	389
GE11-M-20-L2-L	2	2021-08-08 11:32	382
GE11-M-31-L1-S	0	2021-08-08 11:32	362
GE11-M-31-L1-S	1	2021-08-08 11:32	402
GE11-M-31-L1-S	2	2021-08-08 11:32	225
GE11-M-31-L2-S	0	2021-08-08 11:32	421
GE11-M-31-L2-S	1	2021-08-08 11:32	422
GE11-M-31-L2-S	2	2021-08-08 11:32	421
GE11-M-20-L1-L	0	2021-08-09 00:46	384
GE11-M-20-L1-L	1	2021-08-09 00:46	317
GE11-M-20-L1-L	2	2021-08-09 00:46	372
GE11-M-20-L2-L	0	2021-08-09 00:46	279
GE11-M-20-L2-L	1	2021-08-09 00:46	390
GE11-M-20-L2-L	2	2021-08-09 00:46	383
GE11-M-31-L1-S	0	2021-08-09 00:46	358
GE11-M-31-L1-S	1	2021-08-09 00:46	402
GE11-M-31-L1-S	2	2021-08-09 00:46	250
GE11-M-31-L2-S	0	2021-08-09 00:46	416
GE11-M-31-L2-S	1	2021-08-09 00:46	423
GE11-M-31-L2-S	2	2021-08-09 00:46	421
GE11-M-20-L1-L	0	2021-08-09 09:37	380
GE11-M-20-L1-L	1	2021-08-09 09:37	311
GE11-M-20-L1-L	2	2021-08-09 09:37	365
GE11-M-20-L2-L	0	2021-08-09 09:37	272
GE11-M-20-L2-L	1	2021-08-09 09:37	386
GE11-M-20-L2-L	2	2021-08-09 09:37	377
GE11-M-31-L1-S	0	2021-08-09 09:37	356
GE11-M-31-L1-S	1	2021-08-09 09:37	397
GE11-M-31-L1-S	2	2021-08-09 09:37	240
GE11-M-31-L2-S	0	2021-08-09 09:37	412
GE11-M-31-L2-S	1	2021-08-09 09:37	416
GE11-M-31-L2-S	2	2021-08-09 09:37	415
GE11-M-20-L1-L	0	2021-08-10 01:11	386
GE11-M-20-L1-L	1	2021-08-10 01:11	317
GE11-M-20-L1-L	2	2021-08-10 01:11	372
GE11-M-20-L2-L	0	2021-08-10 01:11	281
GE11-M-20-L2-L	1	2021-08-10 01:11	389
GE11-M-20-L2-L	2	2021-08-10 01:11	383
GE11-M-31-L1-S	0	2021-08-10 01:11	366
GE11-M-31-L1-S	1	2021-08-10 01:11	404
GE11-M-31-L1-S	2	2021-08-10 01:11	232
GE11-M-31-L2-S	0	2021-08-10 01:11	417
GE11-M-31-L2-S	1	2021-08-10 01:11	423
GE11-M-31-L2-S	2	2021-08-10 01:11	420
GE11-M-20-L1-L	0	2021-08-10 15:24	385
GE11-M-20-L1-L	1	2021-08-10 15:24	318
GE11-M-20-L1-L	2	2021-08-10 15:24	371
GE11-M-20-L2-L	0	2021-08-10 15:24	279
GE11-M-20-L2-L	1	2021-08-10 15:24	389
GE11-M-20-L2-L	2	2021-08-10 15:24	385
GE11-M-31-L1-S	0	2021-08-10 15:24	361
GE11-M-31-L1-S	1	2021-08-10 15:24	401
GE11-M-31-L1-S	2	2021-08-10 15:24	221
GE11-M-31-L2-S	0	2021-08-10 15:24	416
GE11-M-31-L2-S	1	2021-08-10 15:24	419
GE11-M-31-L2-S	2	2021-08-10 15:24	421

GE11-M-20-L1-L	0	2021-08-10 19:27	385
GE11-M-20-L1-L	1	2021-08-10 19:27	318
GE11-M-20-L1-L	2	2021-08-10 19:27	371
GE11-M-20-L2-L	0	2021-08-10 19:27	281
GE11-M-20-L2-L	1	2021-08-10 19:27	389
GE11-M-20-L2-L	2	2021-08-10 19:27	382
GE11-M-31-L1-S	0	2021-08-10 19:27	363
GE11-M-31-L1-S	1	2021-08-10 19:27	404
GE11-M-31-L1-S	2	2021-08-10 19:27	224
GE11-M-31-L2-S	0	2021-08-10 19:27	417
GE11-M-31-L2-S	1	2021-08-10 19:27	418
GE11-M-31-L2-S	2	2021-08-10 19:27	421

GE11-M-20-L1-L	0	2021-08-11 11:56	386
GE11-M-20-L1-L	1	2021-08-11 11:56	316
GE11-M-20-L1-L	2	2021-08-11 11:56	371
GE11-M-20-L2-L	0	2021-08-11 11:56	280
GE11-M-20-L2-L	1	2021-08-11 11:56	388
GE11-M-20-L2-L	2	2021-08-11 11:56	382
GE11-M-31-L1-S	0	2021-08-11 11:56	365
GE11-M-31-L1-S	1	2021-08-11 11:56	404
GE11-M-31-L1-S	2	2021-08-11 11:56	215
GE11-M-31-L2-S	0	2021-08-11 11:56	417
GE11-M-31-L2-S	1	2021-08-11 11:56	420
GE11-M-31-L2-S	2	2021-08-11 11:56	421

GE11-M-20-L1-L	0	2021-08-12 11:17	384
GE11-M-20-L1-L	1	2021-08-12 11:17	327
GE11-M-20-L1-L	2	2021-08-12 11:17	375
GE11-M-20-L2-L	0	2021-08-12 11:17	279
GE11-M-20-L2-L	1	2021-08-12 11:17	390
GE11-M-20-L2-L	2	2021-08-12 11:17	383
GE11-M-31-L1-S	0	2021-08-12 11:17	362
GE11-M-31-L1-S	1	2021-08-12 11:17	404
GE11-M-31-L1-S	2	2021-08-12 11:17	212
GE11-M-31-L2-S	0	2021-08-12 11:17	416
GE11-M-31-L2-S	1	2021-08-12 11:17	416
GE11-M-31-L2-S	2	2021-08-12 11:17	419

GE11-M-20-L1-L	0	2021-08-12 16:35	383
GE11-M-20-L1-L	1	2021-08-12 16:35	326
GE11-M-20-L1-L	2	2021-08-12 16:35	371
GE11-M-20-L2-L	0	2021-08-12 16:35	280
GE11-M-20-L2-L	1	2021-08-12 16:35	391
GE11-M-20-L2-L	2	2021-08-12 16:35	383
GE11-M-31-L1-S	0	2021-08-12 16:35	363
GE11-M-31-L1-S	1	2021-08-12 16:35	403
GE11-M-31-L1-S	2	2021-08-12 16:35	203
GE11-M-31-L2-S	0	2021-08-12 16:35	416
GE11-M-31-L2-S	1	2021-08-12 16:35	416
GE11-M-31-L2-S	2	2021-08-12 16:35	420

GE11-M-20-L1-L	0	2021-08-16 18:01	379
GE11-M-20-L1-L	1	2021-08-16 18:01	330
GE11-M-20-L1-L	2	2021-08-16 18:01	379
GE11-M-20-L2-L	0	2021-08-16 18:01	277
GE11-M-20-L2-L	1	2021-08-16 18:01	387
GE11-M-20-L2-L	2	2021-08-16 18:01	386
GE11-M-31-L1-S	0	2021-08-16 18:01	366
GE11-M-31-L1-S	1	2021-08-16 18:01	404
GE11-M-31-L1-S	2	2021-08-16 18:01	241
GE11-M-31-L2-S	0	2021-08-16 18:01	424
GE11-M-31-L2-S	1	2021-08-16 18:01	395
GE11-M-31-L2-S	2	2021-08-16 18:01	421

GE11-M-20-L1-L	0	2021-08-17 10:33	381
GE11-M-20-L1-L	1	2021-08-17 10:33	330
GE11-M-20-L1-L	2	2021-08-17 10:33	371
GE11-M-20-L2-L	0	2021-08-17 10:33	280
GE11-M-20-L2-L	1	2021-08-17 10:33	384
GE11-M-20-L2-L	2	2021-08-17 10:33	383
GE11-M-31-L1-S	0	2021-08-17 10:33	364
GE11-M-31-L1-S	1	2021-08-17 10:33	401
GE11-M-31-L1-S	2	2021-08-17 10:33	233
GE11-M-31-L2-S	0	2021-08-17 10:33	416
GE11-M-31-L2-S	1	2021-08-17 10:33	384
GE11-M-31-L2-S	2	2021-08-17 10:33	421

GE11-M-20-L1-L	0	2021-08-17 17:43	385
GE11-M-20-L1-L	1	2021-08-17 17:43	329
GE11-M-20-L1-L	2	2021-08-17 17:43	373
GE11-M-20-L2-L	0	2021-08-17 17:43	277
GE11-M-20-L2-L	1	2021-08-17 17:43	388
GE11-M-20-L2-L	2	2021-08-17 17:43	384
GE11-M-31-L1-S	0	2021-08-17 17:43	362
GE11-M-31-L1-S	1	2021-08-17 17:43	406
GE11-M-31-L1-S	2	2021-08-17 17:43	231
GE11-M-31-L2-S	0	2021-08-17 17:43	422
GE11-M-31-L2-S	1	2021-08-17 17:43	394
GE11-M-31-L2-S	2	2021-08-17 17:43	423

GE11-M-20-L1-L	0	2021-08-18 09:23	381
GE11-M-20-L1-L	1	2021-08-18 09:23	327
GE11-M-20-L1-L	2	2021-08-18 09:23	374
GE11-M-20-L2-L	0	2021-08-18 09:23	279
GE11-M-20-L2-L	1	2021-08-18 09:23	387
GE11-M-20-L2-L	2	2021-08-18 09:23	385
GE11-M-31-L1-S	0	2021-08-18 09:23	363
GE11-M-31-L1-S	1	2021-08-18 09:23	402
GE11-M-31-L1-S	2	2021-08-18 09:23	237
GE11-M-31-L2-S	0	2021-08-18 09:23	420
GE11-M-31-L2-S	1	2021-08-18 09:23	390
GE11-M-31-L2-S	2	2021-08-18 09:23	422

GE11-M-20-L1-L	0	2021-08-18 14:52	382
GE11-M-20-L1-L	1	2021-08-18 14:52	325
GE11-M-20-L1-L	2	2021-08-18 14:52	372
GE11-M-20-L2-L	0	2021-08-18 14:52	275
GE11-M-20-L2-L	1	2021-08-18 14:52	389
GE11-M-20-L2-L	2	2021-08-18 14:52	386
GE11-M-31-L1-S	0	2021-08-18 14:52	364
GE11-M-31-L1-S	1	2021-08-18 14:52	406
GE11-M-31-L1-S	2	2021-08-18 14:52	233
GE11-M-31-L2-S	0	2021-08-18 14:52	420
GE11-M-31-L2-S	1	2021-08-18 14:52	392
GE11-M-31-L2-S	2	2021-08-18 14:52	423

GE11-M-20-L1-L	0	2021-08-18 15:34	382
GE11-M-20-L1-L	1	2021-08-18 15:34	326
GE11-M-20-L1-L	2	2021-08-18 15:34	373
GE11-M-20-L2-L	0	2021-08-18 15:34	278
GE11-M-20-L2-L	1	2021-08-18 15:34	391
GE11-M-20-L2-L	2	2021-08-18 15:34	382
GE11-M-31-L1-S	0	2021-08-18 15:34	362
GE11-M-31-L1-S	1	2021-08-18 15:34	405
GE11-M-31-L1-S	2	2021-08-18 15:34	224
GE11-M-31-L2-S	0	2021-08-18 15:34	421
GE11-M-31-L2-S	1	2021-08-18 15:34	390
GE11-M-31-L2-S	2	2021-08-18 15:34	422

GE11-M-20-L1-L	0	2021-08-20 15:12	384
GE11-M-20-L1-L	1	2021-08-20 15:12	320
GE11-M-20-L1-L	2	2021-08-20 15:12	372
GE11-M-20-L2-L	0	2021-08-20 15:12	282
GE11-M-20-L2-L	1	2021-08-20 15:12	387
GE11-M-20-L2-L	2	2021-08-20 15:12	380
GE11-M-31-L1-S	0	2021-08-20 15:12	360
GE11-M-31-L1-S	1	2021-08-20 15:12	403
GE11-M-31-L1-S	2	2021-08-20 15:12	206
GE11-M-31-L2-S	0	2021-08-20 15:12	420
GE11-M-31-L2-S	1	2021-08-20 15:12	386
GE11-M-31-L2-S	2	2021-08-20 15:12	420

GE11-M-20-L1-L	0	2021-08-21 11:36	380
GE11-M-20-L1-L	1	2021-08-21 11:36	318
GE11-M-20-L1-L	2	2021-08-21 11:36	375
GE11-M-20-L2-L	0	2021-08-21 11:36	279
GE11-M-20-L2-L	1	2021-08-21 11:36	388
GE11-M-20-L2-L	2	2021-08-21 11:36	386
GE11-M-31-L1-S	0	2021-08-21 11:36	364
GE11-M-31-L1-S	1	2021-08-21 11:36	403
GE11-M-31-L1-S	2	2021-08-21 11:36	338
GE11-M-31-L2-S	0	2021-08-21 11:36	421
GE11-M-31-L2-S	1	2021-08-21 11:36	389
GE11-M-31-L2-S	2	2021-08-21 11:36	421

GE11-M-20-L1-L	0	2021-08-21 18:27	380
GE11-M-20-L1-L	1	2021-08-21 18:27	317
GE11-M-20-L1-L	2	2021-08-21 18:27	375
GE11-M-20-L2-L	0	2021-08-21 18:27	278
GE11-M-20-L2-L	1	2021-08-21 18:27	388
GE11-M-20-L2-L	2	2021-08-21 18:27	386
GE11-M-31-L1-S	0	2021-08-21 18:27	364
GE11-M-31-L1-S	1	2021-08-21 18:27	404
GE11-M-31-L1-S	2	2021-08-21 18:27	340
GE11-M-31-L2-S	0	2021-08-21 18:27	421
GE11-M-31-L2-S	1	2021-08-21 18:27	387
GE11-M-31-L2-S	2	2021-08-21 18:27	421

GE11-M-20-L1-L	0	2021-08-22 11:11	379
GE11-M-20-L1-L	1	2021-08-22 11:11	309
GE11-M-20-L1-L	2	2021-08-22 11:11	373
GE11-M-20-L2-L	0	2021-08-22 11:11	280
GE11-M-20-L2-L	1	2021-08-22 11:11	389
GE11-M-20-L2-L	2	2021-08-22 11:11	386
GE11-M-31-L1-S	0	2021-08-22 11:11	364
GE11-M-31-L1-S	1	2021-08-22 11:11	403
GE11-M-31-L1-S	2	2021-08-22 11:11	332
GE11-M-31-L2-S	0	2021-08-22 11:11	421
GE11-M-31-L2-S	1	2021-08-22 11:11	387
GE11-M-31-L2-S	2	2021-08-22 11:11	421

GE11-M-20-L1-L	0	2021-08-22 20:22	381
GE11-M-20-L1-L	1	2021-08-22 20:22	304
GE11-M-20-L1-L	2	2021-08-22 20:22	374
GE11-M-20-L2-L	0	2021-08-22 20:22	280
GE11-M-20-L2-L	1	2021-08-22 20:22	389
GE11-M-20-L2-L	2	2021-08-22 20:22	386
GE11-M-31-L1-S	0	2021-08-22 20:22	365
GE11-M-31-L1-S	1	2021-08-22 20:22	402
GE11-M-31-L1-S	2	2021-08-22 20:22	328
GE11-M-31-L2-S	0	2021-08-22 20:22	421
GE11-M-31-L2-S	1	2021-08-22 20:22	387
GE11-M-31-L2-S	2	2021-08-22 20:22	422

GE11-M-20-L1-L	0	2021-08-23 07:53	380
GE11-M-20-L1-L	1	2021-08-23 07:53	307
GE11-M-20-L1-L	2	2021-08-23 07:53	374
GE11-M-20-L2-L	0	2021-08-23 07:53	278
GE11-M-20-L2-L	1	2021-08-23 07:53	388
GE11-M-20-L2-L	2	2021-08-23 07:53	385
GE11-M-31-L1-S	0	2021-08-23 07:53	363
GE11-M-31-L1-S	1	2021-08-23 07:53	404
GE11-M-31-L1-S	2	2021-08-23 07:53	330
GE11-M-31-L2-S	0	2021-08-23 07:53	421
GE11-M-31-L2-S	1	2021-08-23 07:53	380
GE11-M-31-L2-S	2	2021-08-23 07:53	421

GE11-M-20-L1-L	0	2021-08-23 19:42	382
GE11-M-20-L1-L	1	2021-08-23 19:42	305
GE11-M-20-L1-L	2	2021-08-23 19:42	373
GE11-M-20-L2-L	0	2021-08-23 19:42	279
GE11-M-20-L2-L	1	2021-08-23 19:42	387
GE11-M-20-L2-L	2	2021-08-23 19:42	383
GE11-M-31-L1-S	0	2021-08-23 19:42	363
GE11-M-31-L1-S	1	2021-08-23 19:42	405
GE11-M-31-L1-S	2	2021-08-23 19:42	324
GE11-M-31-L2-S	0	2021-08-23 19:42	423
GE11-M-31-L2-S	1	2021-08-23 19:42	378
GE11-M-31-L2-S	2	2021-08-23 19:42	421

GE11-M-20-L1-L	0	2021-08-24 09:12	384
GE11-M-20-L1-L	1	2021-08-24 09:12	299
GE11-M-20-L1-L	2	2021-08-24 09:12	374
GE11-M-20-L2-L	0	2021-08-24 09:12	278
GE11-M-20-L2-L	1	2021-08-24 09:12	389
GE11-M-20-L2-L	2	2021-08-24 09:12	382
GE11-M-31-L1-S	0	2021-08-24 09:12	365
GE11-M-31-L1-S	1	2021-08-24 09:12	401
GE11-M-31-L1-S	2	2021-08-24 09:12	317
GE11-M-31-L2-S	0	2021-08-24 09:12	420
GE11-M-31-L2-S	1	2021-08-24 09:12	380
GE11-M-31-L2-S	2	2021-08-24 09:12	422

GE11-M-20-L1-L	0	2021-08-24 11:28	382
GE11-M-20-L1-L	1	2021-08-24 11:28	299
GE11-M-20-L1-L	2	2021-08-24 11:28	373
GE11-M-20-L2-L	0	2021-08-24 11:28	278
GE11-M-20-L2-L	1	2021-08-24 11:28	389
GE11-M-20-L2-L	2	2021-08-24 11:28	384
GE11-M-31-L1-S	0	2021-08-24 11:28	364
GE11-M-31-L1-S	1	2021-08-24 11:28	402
GE11-M-31-L1-S	2	2021-08-24 11:28	317
GE11-M-31-L2-S	0	2021-08-24 11:28	421
GE11-M-31-L2-S	1	2021-08-24 11:28	381
GE11-M-31-L2-S	2	2021-08-24 11:28	422

GE11-M-20-L1-L	0	2021-08-24 15:59	381
GE11-M-20-L1-L	1	2021-08-24 15:59	324
GE11-M-20-L1-L	2	2021-08-24 15:59	372
GE11-M-20-L2-L	0	2021-08-24 15:59	279
GE11-M-20-L2-L	1	2021-08-24 15:59	389
GE11-M-20-L2-L	2	2021-08-24 15:59	385
GE11-M-31-L1-S	0	2021-08-24 15:59	363
GE11-M-31-L1-S	1	2021-08-24 15:59	405
GE11-M-31-L1-S	2	2021-08-24 15:59	321
GE11-M-31-L2-S	0	2021-08-24 15:59	422
GE11-M-31-L2-S	1	2021-08-24 15:59	377
GE11-M-31-L2-S	2	2021-08-24 15:59	420

GE11-M-20-L1-L	0	2021-08-24 20:15	380
GE11-M-20-L1-L	1	2021-08-24 20:15	335
GE11-M-20-L1-L	2	2021-08-24 20:15	373
GE11-M-20-L2-L	0	2021-08-24 20:15	280
GE11-M-20-L2-L	1	2021-08-24 20:15	390
GE11-M-20-L2-L	2	2021-08-24 20:15	386
GE11-M-31-L1-S	0	2021-08-24 20:15	364
GE11-M-31-L1-S	1	2021-08-24 20:15	404
GE11-M-31-L1-S	2	2021-08-24 20:15	317
GE11-M-31-L2-S	0	2021-08-24 20:15	421
GE11-M-31-L2-S	1	2021-08-24 20:15	383
GE11-M-31-L2-S	2	2021-08-24 20:15	421

GE11-M-20-L1-L	0	2021-08-25 08:56	382
GE11-M-20-L1-L	1	2021-08-25 08:56	337
GE11-M-20-L1-L	2	2021-08-25 08:56	375
GE11-M-20-L2-L	0	2021-08-25 08:56	279
GE11-M-20-L2-L	1	2021-08-25 08:56	389
GE11-M-20-L2-L	2	2021-08-25 08:56	383
GE11-M-31-L1-S	0	2021-08-25 08:56	366
GE11-M-31-L1-S	1	2021-08-25 08:56	402
GE11-M-31-L1-S	2	2021-08-25 08:56	311
GE11-M-31-L2-S	0	2021-08-25 08:56	420
GE11-M-31-L2-S	1	2021-08-25 08:56	378
GE11-M-31-L2-S	2	2021-08-25 08:56	422

GE11-M-20-L1-L	0	2021-08-25 22:43	380
GE11-M-20-L1-L	1	2021-08-25 22:43	337
GE11-M-20-L1-L	2	2021-08-25 22:43	372
GE11-M-20-L2-L	0	2021-08-25 22:43	280
GE11-M-20-L2-L	1	2021-08-25 22:43	388
GE11-M-20-L2-L	2	2021-08-25 22:43	384
GE11-M-31-L1-S	0	2021-08-25 22:43	365
GE11-M-31-L1-S	1	2021-08-25 22:43	402
GE11-M-31-L1-S	2	2021-08-25 22:43	309
GE11-M-31-L2-S	0	2021-08-25 22:43	421
GE11-M-31-L2-S	1	2021-08-25 22:43	378
GE11-M-31-L2-S	2	2021-08-25 22:43	422

GE11-M-20-L1-L	0	2021-08-26 08:46	379
GE11-M-20-L1-L	1	2021-08-26 08:46	335
GE11-M-20-L1-L	2	2021-08-26 08:46	370
GE11-M-20-L2-L	0	2021-08-26 08:46	279
GE11-M-20-L2-L	1	2021-08-26 08:46	388
GE11-M-20-L2-L	2	2021-08-26 08:46	386
GE11-M-31-L1-S	0	2021-08-26 08:46	364
GE11-M-31-L1-S	1	2021-08-26 08:46	404
GE11-M-31-L1-S	2	2021-08-26 08:46	311
GE11-M-31-L2-S	0	2021-08-26 08:46	421
GE11-M-31-L2-S	1	2021-08-26 08:46	375
GE11-M-31-L2-S	2	2021-08-26 08:46	421

GE11-M-20-L1-L	0	2021-08-26 18:36	384
GE11-M-20-L1-L	1	2021-08-26 18:36	337
GE11-M-20-L1-L	2	2021-08-26 18:36	371
GE11-M-20-L2-L	0	2021-08-26 18:36	279
GE11-M-20-L2-L	1	2021-08-26 18:36	388
GE11-M-20-L2-L	2	2021-08-26 18:36	384
GE11-M-31-L1-S	0	2021-08-26 18:36	369
GE11-M-31-L1-S	1	2021-08-26 18:36	405
GE11-M-31-L1-S	2	2021-08-26 18:36	296
GE11-M-31-L2-S	0	2021-08-26 18:36	421
GE11-M-31-L2-S	1	2021-08-26 18:36	372
GE11-M-31-L2-S	2	2021-08-26 18:36	422

GE11-M-20-L1-L	0	2021-08-27 08:55	385
GE11-M-20-L1-L	1	2021-08-27 08:55	335
GE11-M-20-L1-L	2	2021-08-27 08:55	376
GE11-M-20-L2-L	0	2021-08-27 08:55	278
GE11-M-20-L2-L	1	2021-08-27 08:55	389
GE11-M-20-L2-L	2	2021-08-27 08:55	380
GE11-M-31-L1-S	0	2021-08-27 08:55	363
GE11-M-31-L1-S	1	2021-08-27 08:55	402
GE11-M-31-L1-S	2	2021-08-27 08:55	296
GE11-M-31-L2-S	0	2021-08-27 08:55	421
GE11-M-31-L2-S	1	2021-08-27 08:55	370
GE11-M-31-L2-S	2	2021-08-27 08:55	422

GE11-M-20-L1-L	0	2021-08-27 13:39	383
GE11-M-20-L1-L	1	2021-08-27 13:39	336
GE11-M-20-L1-L	2	2021-08-27 13:39	365
GE11-M-20-L2-L	0	2021-08-27 13:39	278
GE11-M-20-L2-L	1	2021-08-27 13:39	389
GE11-M-20-L2-L	2	2021-08-27 13:39	384
GE11-M-31-L1-S	0	2021-08-27 13:39	365
GE11-M-31-L1-S	1	2021-08-27 13:39	404
GE11-M-31-L1-S	2	2021-08-27 13:39	303
GE11-M-31-L2-S	0	2021-08-27 13:39	422
GE11-M-31-L2-S	1	2021-08-27 13:39	370
GE11-M-31-L2-S	2	2021-08-27 13:39	422

GE11-M-20-L1-L	0	2021-08-27 17:15	382
GE11-M-20-L1-L	1	2021-08-27 17:15	339
GE11-M-20-L1-L	2	2021-08-27 17:15	365
GE11-M-20-L2-L	0	2021-08-27 17:15	279
GE11-M-20-L2-L	1	2021-08-27 17:15	389
GE11-M-20-L2-L	2	2021-08-27 17:15	381
GE11-M-31-L1-S	0	2021-08-27 17:15	362
GE11-M-31-L1-S	1	2021-08-27 17:15	406
GE11-M-31-L1-S	2	2021-08-27 17:15	295
GE11-M-31-L2-S	0	2021-08-27 17:15	421
GE11-M-31-L2-S	1	2021-08-27 17:15	371
GE11-M-31-L2-S	2	2021-08-27 17:15	422

GE11-M-20-L1-L	0	2021-08-28 07:55	385
GE11-M-20-L1-L	1	2021-08-28 07:55	337
GE11-M-20-L1-L	2	2021-08-28 07:55	371
GE11-M-20-L2-L	0	2021-08-28 07:55	279
GE11-M-20-L2-L	1	2021-08-28 07:55	388
GE11-M-20-L2-L	2	2021-08-28 07:55	384
GE11-M-31-L1-S	0	2021-08-28 07:55	365
GE11-M-31-L1-S	1	2021-08-28 07:55	402
GE11-M-31-L1-S	2	2021-08-28 07:55	279
GE11-M-31-L2-S	0	2021-08-28 07:55	421
GE11-M-31-L2-S	1	2021-08-28 07:55	373
GE11-M-31-L2-S	2	2021-08-28 07:55	423

GE11-M-20-L1-L	0	2021-08-28 13:35	384
GE11-M-20-L1-L	1	2021-08-28 13:35	337
GE11-M-20-L1-L	2	2021-08-28 13:35	371
GE11-M-20-L2-L	0	2021-08-28 13:35	276
GE11-M-20-L2-L	1	2021-08-28 13:35	388
GE11-M-20-L2-L	2	2021-08-28 13:35	384
GE11-M-31-L1-S	0	2021-08-28 13:35	363
GE11-M-31-L1-S	1	2021-08-28 13:35	407
GE11-M-31-L1-S	2	2021-08-28 13:35	276
GE11-M-31-L2-S	0	2021-08-28 13:35	422
GE11-M-31-L2-S	1	2021-08-28 13:35	369
GE11-M-31-L2-S	2	2021-08-28 13:35	423

GE11-M-20-L1-L	0	2021-08-29 10:39	381
GE11-M-20-L1-L	1	2021-08-29 10:39	335
GE11-M-20-L1-L	2	2021-08-29 10:39	374
GE11-M-20-L2-L	0	2021-08-29 10:39	277
GE11-M-20-L2-L	1	2021-08-29 10:39	386
GE11-M-20-L2-L	2	2021-08-29 10:39	382
GE11-M-31-L1-S	0	2021-08-29 10:39	363
GE11-M-31-L1-S	1	2021-08-29 10:39	404
GE11-M-31-L1-S	2	2021-08-29 10:39	282
GE11-M-31-L2-S	0	2021-08-29 10:39	422
GE11-M-31-L2-S	1	2021-08-29 10:39	367
GE11-M-31-L2-S	2	2021-08-29 10:39	422

GE11-M-20-L1-L	0	2021-08-29 18:18	383
GE11-M-20-L1-L	1	2021-08-29 18:18	338
GE11-M-20-L1-L	2	2021-08-29 18:18	366
GE11-M-20-L2-L	0	2021-08-29 18:18	277
GE11-M-20-L2-L	1	2021-08-29 18:18	389
GE11-M-20-L2-L	2	2021-08-29 18:18	383
GE11-M-31-L1-S	0	2021-08-29 18:18	364
GE11-M-31-L1-S	1	2021-08-29 18:18	407
GE11-M-31-L1-S	2	2021-08-29 18:18	264
GE11-M-31-L2-S	0	2021-08-29 18:18	421
GE11-M-31-L2-S	1	2021-08-29 18:18	369
GE11-M-31-L2-S	2	2021-08-29 18:18	422

GE11-M-20-L1-L	0	2021-08-30 09:01	379
GE11-M-20-L1-L	1	2021-08-30 09:01	336
GE11-M-20-L1-L	2	2021-08-30 09:01	372
GE11-M-20-L2-L	0	2021-08-30 09:01	279
GE11-M-20-L2-L	1	2021-08-30 09:01	388
GE11-M-20-L2-L	2	2021-08-30 09:01	386
GE11-M-31-L1-S	0	2021-08-30 09:01	364
GE11-M-31-L1-S	1	2021-08-30 09:01	404
GE11-M-31-L1-S	2	2021-08-30 09:01	280
GE11-M-31-L2-S	0	2021-08-30 09:01	421
GE11-M-31-L2-S	1	2021-08-30 09:01	372
GE11-M-31-L2-S	2	2021-08-30 09:01	422

GE11-M-20-L1-L	0	2021-08-30 19:15	385
GE11-M-20-L1-L	1	2021-08-30 19:15	338
GE11-M-20-L1-L	2	2021-08-30 19:15	368
GE11-M-20-L2-L	0	2021-08-30 19:15	281
GE11-M-20-L2-L	1	2021-08-30 19:15	390
GE11-M-20-L2-L	2	2021-08-30 19:15	386
GE11-M-31-L1-S	0	2021-08-30 19:15	360
GE11-M-31-L1-S	1	2021-08-30 19:15	403
GE11-M-31-L1-S	2	2021-08-30 19:15	281
GE11-M-31-L2-S	0	2021-08-30 19:15	419
GE11-M-31-L2-S	1	2021-08-30 19:15	372
GE11-M-31-L2-S	2	2021-08-30 19:15	421

GE11-M-20-L1-L	0	2021-08-31 10:29	385
GE11-M-20-L1-L	1	2021-08-31 10:29	338
GE11-M-20-L1-L	2	2021-08-31 10:29	370
GE11-M-20-L2-L	0	2021-08-31 10:29	279
GE11-M-20-L2-L	1	2021-08-31 10:29	389
GE11-M-20-L2-L	2	2021-08-31 10:29	384
GE11-M-31-L1-S	0	2021-08-31 10:29	359
GE11-M-31-L1-S	1	2021-08-31 10:29	404
GE11-M-31-L1-S	2	2021-08-31 10:29	273
GE11-M-31-L2-S	0	2021-08-31 10:29	418
GE11-M-31-L2-S	1	2021-08-31 10:29	359
GE11-M-31-L2-S	2	2021-08-31 10:29	422

GE11-M-20-L1-L	0	2021-08-31 17:17	381
GE11-M-20-L1-L	1	2021-08-31 17:17	337
GE11-M-20-L1-L	2	2021-08-31 17:17	371
GE11-M-20-L2-L	0	2021-08-31 17:17	278
GE11-M-20-L2-L	1	2021-08-31 17:17	388
GE11-M-20-L2-L	2	2021-08-31 17:17	386
GE11-M-31-L1-S	0	2021-08-31 17:17	363
GE11-M-31-L1-S	1	2021-08-31 17:17	405
GE11-M-31-L1-S	2	2021-08-31 17:17	268
GE11-M-31-L2-S	0	2021-08-31 17:17	417
GE11-M-31-L2-S	1	2021-08-31 17:17	379
GE11-M-31-L2-S	2	2021-08-31 17:17	420
